<?xml version="1.0" encoding="utf-8"?>
<!-- Generator: Adobe Illustrator 16.0.0, SVG Export Plug-In . SVG Version: 6.00 Build 0)  -->
<!DOCTYPE svg PUBLIC "-//W3C//DTD SVG 1.1//EN" "http://www.w3.org/Graphics/SVG/1.1/DTD/svg11.dtd">
<svg version="1.1" id="Layer_1" xmlns="http://www.w3.org/2000/svg" xmlns:xlink="http://www.w3.org/1999/xlink" x="0px" y="0px"
	 width="300px" height="300px" viewBox="0 0 300 300" enable-background="new 0 0 300 300" xml:space="preserve">
<g>
	<polygon fill="#2F3030" points="150.039,224.48 150.039,298.078 240.383,171.182 	"/>
	<polygon points="150.039,112.989 150.039,207.455 240.38,154.017 	"/>
	<polygon fill="#2F3030" points="150.039,4.13 150.039,112.989 240.38,154.017 	"/>
	<polygon fill="#828384" points="150.041,224.48 150.041,298.078 59.698,171.182 	"/>
	<polygon fill="#343535" points="150.041,112.989 150.041,207.455 59.7,154.017 	"/>
	<polygon fill="#828384" points="150.041,4.13 150.041,112.989 59.7,154.017 	"/>
</g>
</svg>
